FinalCode/MIPS.vcd
$date
	Sun Nov 25 18:07:43 2018
$end
$version
	Icarus Verilog
$end
$timescale
	1s
$end
$scope module MIPS $end
$var wire 32 ! write_data [31:0] $end
$var wire 32 " temp_pc [31:0] $end
$var wire 5 # rt [4:0] $end
$var wire 5 $ rs [4:0] $end
$var wire 1 % regWrite $end
$var wire 1 & regDest $end
$var wire 32 ' read_data2 [31:0] $end
$var wire 32 ( read_data1 [31:0] $end
$var wire 5 ) rd [4:0] $end
$var wire 32 * pc [31:0] $end
$var wire 6 + opcode [5:0] $end
$var wire 32 , new_pc [31:0] $end
$var wire 1 - memtoReg $end
$var wire 1 . memWrite $end
$var wire 1 / memRead $end
$var wire 26 0 jumper [25:0] $end
$var wire 32 1 jump_pc [31:0] $end
$var wire 1 2 jump $end
$var wire 32 3 instruction [31:0] $end
$var wire 16 4 immediate [15:0] $end
$var wire 6 5 func [5:0] $end
$var wire 1 6 flag_zero $end
$var wire 32 7 branch_pc [31:0] $end
$var wire 1 8 branch $end
$var wire 1 9 alu_src $end
$var wire 32 : alu_output [31:0] $end
$var wire 32 ; alu_operand2 [31:0] $end
$var wire 2 < alu_op [1:0] $end
$var wire 4 = alu_control [3:0] $end
$scope module Branch_pc $end
$var wire 32 > in_pc [31:0] $end
$var wire 16 ? imm [15:0] $end
$var reg 32 @ branch_pc [31:0] $end
$var reg 32 A temp_pc [31:0] $end
$upscope $end
$scope module Jump_pc $end
$var wire 26 B jumper [25:0] $end
$var wire 32 C in_pc [31:0] $end
$var reg 32 D jump_pc [31:0] $end
$var reg 32 E out_pc [31:0] $end
$upscope $end
$scope module New_pc $end
$var wire 32 F branch_pc [31:0] $end
$var wire 32 G in_pc [31:0] $end
$var wire 32 H jump_pc [31:0] $end
$var wire 1 2 jump $end
$var wire 1 8 branch $end
$var reg 32 I new_pc [31:0] $end
$var reg 32 J temp_pc [31:0] $end
$upscope $end
$scope module PC $end
$var wire 32 K in_pc [31:0] $end
$var reg 1 L clk $end
$var reg 32 M out_pc [31:0] $end
$upscope $end
$scope module alu1 $end
$var wire 32 N operand2 [31:0] $end
$var wire 32 O operand1 [31:0] $end
$var wire 4 P alu_ctrl [3:0] $end
$var reg 1 6 flag_zero $end
$var reg 32 Q res [31:0] $end
$upscope $end
$scope module alu_ctrl $end
$var wire 6 R func [5:0] $end
$var wire 2 S alu_op [1:0] $end
$var reg 4 T alu_ctrl [3:0] $end
$upscope $end
$scope module alu_mux $end
$var wire 16 U imm [15:0] $end
$var wire 32 V data2 [31:0] $end
$var wire 1 9 alu_src $end
$var reg 32 W operand2 [31:0] $end
$upscope $end
$scope module brkdown $end
$var wire 5 X rt [4:0] $end
$var wire 5 Y rs [4:0] $end
$var wire 5 Z rd [4:0] $end
$var wire 6 [ op [5:0] $end
$var wire 26 \ jumper [25:0] $end
$var wire 32 ] inst [31:0] $end
$var wire 16 ^ imm [15:0] $end
$var wire 6 _ func [5:0] $end
$upscope $end
$scope module cntrl_unit $end
$var wire 6 ` opcode [5:0] $end
$var reg 2 a alu_op [1:0] $end
$var reg 1 9 alu_src $end
$var reg 1 8 branch $end
$var reg 1 2 jump $end
$var reg 1 / memRead $end
$var reg 1 . memWrite $end
$var reg 1 - memtoReg $end
$var reg 1 & regDest $end
$var reg 1 % regWrite $end
$upscope $end
$scope module datamemory $end
$var wire 32 b alu_res [31:0] $end
$var wire 1 / mem_read $end
$var wire 1 - mem_to_reg $end
$var wire 1 . mem_write $end
$var wire 32 c write_data [31:0] $end
$var reg 10 d alu_temp [9:0] $end
$var reg 32 e out_data [31:0] $end
$var reg 32 f temp_data [31:0] $end
$var integer 32 g read [31:0] $end
$upscope $end
$scope module instruction_memory $end
$var wire 32 h pc [31:0] $end
$var reg 32 i inst [31:0] $end
$var reg 16 j temp_pc [15:0] $end
$var integer 32 k opener [31:0] $end
$upscope $end
$scope module registerfile $end
$var wire 5 l reg1 [4:0] $end
$var wire 5 m reg2 [4:0] $end
$var wire 5 n reg3 [4:0] $end
$var wire 1 & reg_dest $end
$var wire 1 % reg_write $end
$var wire 32 o wdat [31:0] $end
$var reg 32 p rdat1 [31:0] $end
$var reg 32 q rdat2 [31:0] $end
$var reg 6 r wreg [5:0] $end
$var integer 32 s init [31:0] $end
$upscope $end
$upscope $end
$enddefinitions $end
#0
$dumpvars
b1 s
b1000 r
b0 q
b0 p
b10 o
b0 n
b1000 m
b10000 l
b1 k
b0 j
b10001110000010000000000000000000 i
b0 h
b1 g
b10 f
b10 e
b0 d
b0 c
b0 b
b0 a
b100011 `
b0 _
b0 ^
b10001110000010000000000000000000 ]
b10000010000000000000000000 \
b100011 [
b0 Z
b10000 Y
b1000 X
b0 W
b0 V
b0 U
b10 T
b0 S
b0 R
b0 Q
b10 P
b0 O
b0 N
b0 M
1L
b100 K
b100 J
b100 I
b1000000000000000000000 H
b100 G
b100 F
b100 E
b1000000000000000000000 D
b0 C
b10000010000000000000000000 B
b0 A
b100 @
b0 ?
b100 >
b10 =
b0 <
b0 ;
b0 :
19
08
b100 7
16
b0 5
b0 4
b10001110000010000000000000000000 3
02
b1000000000000000000000 1
b10000010000000000000000000 0
1/
0.
1-
b100 ,
b100011 +
b0 *
b0 )
b0 (
b0 '
0&
1%
b10000 $
b1000 #
b100 "
b10 !
$end
#5
0L
#10
b1001 r
b11 !
b11 e
b11 o
b11 f
b1 d
06
b1 :
b1 Q
b1 b
b1001000000000000000100 1
b1001000000000000000100 D
b1001000000000000000100 H
b100 A
b1 ;
b1 N
b1 W
b10000010010000000000000001 0
b10000010010000000000000001 B
b10000010010000000000000001 \
b1 4
b1 ?
b1 U
b1 ^
b1 5
b1 R
b1 _
b1001 #
b1001 X
b1001 m
b1100 7
b1100 @
b1100 F
b1000 ,
b1000 I
b1000 K
b1000 J
b10001110000010010000000000000001 3
b10001110000010010000000000000001 ]
b10001110000010010000000000000001 i
b100 j
b1000 "
b1000 >
b1000 E
b1000 G
b100 *
b100 C
b100 M
b100 h
1L
#15
0L
#20
b1010 r
b100 !
b100 e
b100 o
b100 f
b10 d
b10 :
b10 Q
b10 b
b1000 A
b10 ;
b10 N
b10 W
b10100 7
b10100 @
b10100 F
b1010000000000000001000 1
b1010000000000000001000 D
b1010000000000000001000 H
b1100 ,
b1100 I
b1100 K
b1100 J
b10000010100000000000000010 0
b10000010100000000000000010 B
b10000010100000000000000010 \
b10 4
b10 ?
b10 U
b10 ^
b10 5
b10 R
b10 _
b1010 #
b1010 X
b1010 m
b1100 "
b1100 >
b1100 E
b1100 G
b10001110000010100000000000000010 3
b10001110000010100000000000000010 ]
b10001110000010100000000000000010 i
b1000 j
b1000 *
b1000 C
b1000 M
b1000 h
1L
#25
0L
#30
b1011 r
b101 !
b101 e
b101 o
b101 f
b11 d
b11 :
b11 Q
b11 b
b1011000000000000001100 1
b1011000000000000001100 D
b1011000000000000001100 H
b1100 A
b11 ;
b11 N
b11 W
b10000010110000000000000011 0
b10000010110000000000000011 B
b10000010110000000000000011 \
b11 4
b11 ?
b11 U
b11 ^
b11 5
b11 R
b11 _
b1011 #
b1011 X
b1011 m
b11100 7
b11100 @
b11100 F
b10000 ,
b10000 I
b10000 K
b10000 J
b10001110000010110000000000000011 3
b10001110000010110000000000000011 ]
b10001110000010110000000000000011 i
b1100 j
b10000 "
b10000 >
b10000 E
b10000 G
b1100 *
b1100 C
b1100 M
b1100 h
1L
#35
0L
#40
b1100 r
b11 !
b11 e
b11 o
b11 f
b100 d
b100 :
b100 Q
b100 b
b10000 A
b100 ;
b100 N
b100 W
b100100 7
b100100 @
b100100 F
b1100000000000000010000 1
b1100000000000000010000 D
b1100000000000000010000 H
b10100 ,
b10100 I
b10100 K
b10100 J
b10000011000000000000000100 0
b10000011000000000000000100 B
b10000011000000000000000100 \
b100 4
b100 ?
b100 U
b100 ^
b100 5
b100 R
b100 _
b1100 #
b1100 X
b1100 m
b10100 "
b10100 >
b10100 E
b10100 G
b10001110000011000000000000000100 3
b10001110000011000000000000000100 ]
b10001110000011000000000000000100 i
b10000 j
b10000 *
b10000 C
b10000 M
b10000 h
1L
#45
0L
#50
b1101 r
b100 !
b100 e
b100 o
b100 f
b101 d
b101 :
b101 Q
b101 b
b1101000000000000010100 1
b1101000000000000010100 D
b1101000000000000010100 H
b10100 A
b101 ;
b101 N
b101 W
b10000011010000000000000101 0
b10000011010000000000000101 B
b10000011010000000000000101 \
b101 4
b101 ?
b101 U
b101 ^
b101 5
b101 R
b101 _
b1101 #
b1101 X
b1101 m
b101100 7
b101100 @
b101100 F
b11000 ,
b11000 I
b11000 K
b11000 J
b10001110000011010000000000000101 3
b10001110000011010000000000000101 ]
b10001110000011010000000000000101 i
b10100 j
b11000 "
b11000 >
b11000 E
b11000 G
b10100 *
b10100 C
b10100 M
b10100 h
1L
#55
0L
#60
b1110 r
b101 !
b101 e
b101 o
b101 f
b110 d
b110 :
b110 Q
b110 b
b11000 A
b110 ;
b110 N
b110 W
b110100 7
b110100 @
b110100 F
b1110000000000000011000 1
b1110000000000000011000 D
b1110000000000000011000 H
b11100 ,
b11100 I
b11100 K
b11100 J
b10000011100000000000000110 0
b10000011100000000000000110 B
b10000011100000000000000110 \
b110 4
b110 ?
b110 U
b110 ^
b110 5
b110 R
b110 _
b1110 #
b1110 X
b1110 m
b11100 "
b11100 >
b11100 E
b11100 G
b10001110000011100000000000000110 3
b10001110000011100000000000000110 ]
b10001110000011100000000000000110 i
b11000 j
b11000 *
b11000 C
b11000 M
b11000 h
1L
#65
0L
#70
b1111 r
b110 !
b110 e
b110 o
b110 f
b111 d
b111 :
b111 Q
b111 b
b1111000000000000011100 1
b1111000000000000011100 D
b1111000000000000011100 H
b11100 A
b111 ;
b111 N
b111 W
b10000011110000000000000111 0
b10000011110000000000000111 B
b10000011110000000000000111 \
b111 4
b111 ?
b111 U
b111 ^
b111 5
b111 R
b111 _
b1111 #
b1111 X
b1111 m
b111100 7
b111100 @
b111100 F
b100000 ,
b100000 I
b100000 K
b100000 J
b10001110000011110000000000000111 3
b10001110000011110000000000000111 ]
b10001110000011110000000000000111 i
b11100 j
b100000 "
b100000 >
b100000 E
b100000 G
b11100 *
b11100 C
b11100 M
b11100 h
1L
#75
0L
#80
b10000 r
b110 d
b110 :
b110 Q
b110 b
b110 !
b110 e
b110 o
b100000000001100000 A
b11 ;
b11 N
b11 W
b100 =
b100 P
b100 T
b11 '
b11 V
b11 c
b11 q
b10 (
b10 O
b10 p
b10 <
b10 S
b10 a
1&
1%
09
0-
0/
b100000000010000100 7
b100000000010000100 @
b100000000010000100 F
b1100100000000001100000 1
b1100100000000001100000 D
b1100100000000001100000 H
b100100 ,
b100100 I
b100100 K
b100100 J
b1000011001000000000011000 0
b1000011001000000000011000 B
b1000011001000000000011000 \
b1000000000011000 4
b1000000000011000 ?
b1000000000011000 U
b1000000000011000 ^
b11000 5
b11000 R
b11000 _
b10000 )
b10000 Z
b10000 n
b1100 #
b1100 X
b1100 m
b1000 $
b1000 Y
b1000 l
b0 +
b0 [
b0 `
b100100 "
b100100 >
b100100 E
b100100 G
b1000011001000000000011000 3
b1000011001000000000011000 ]
b1000011001000000000011000 i
b100000 j
b100000 *
b100000 C
b100000 M
b100000 h
1L
#85
0L
#90
b10001 r
b1111 !
b1111 e
b1111 o
b1111 d
b1111 :
b1111 Q
b1111 b
b101110100010000001100000 1
b101110100010000001100000 D
b101110100010000001100000 H
b100010000001100000 A
b101 ;
b101 N
b101 W
b101 '
b101 V
b101 c
b101 q
b11 (
b11 O
b11 p
b1001011101000100000011000 0
b1001011101000100000011000 B
b1001011101000100000011000 \
b1000100000011000 4
b1000100000011000 ?
b1000100000011000 U
b1000100000011000 ^
b10001 )
b10001 Z
b10001 n
b1110 #
b1110 X
b1110 m
b1001 $
b1001 Y
b1001 l
b100010000010001000 7
b100010000010001000 @
b100010000010001000 F
b101000 ,
b101000 I
b101000 K
b101000 J
b1001011101000100000011000 3
b1001011101000100000011000 ]
b1001011101000100000011000 i
b100100 j
b101000 "
b101000 >
b101000 E
b101000 G
b100100 *
b100100 C
b100100 M
b100100 h
1L
#95
0L
#100
b10010 r
b10101 !
b10101 e
b10101 o
b10101 d
b10101 :
b10101 Q
b10101 b
b100100000010000000 A
b1111 ;
b1111 N
b1111 W
b10 =
b10 P
b10 T
b1111 '
b1111 V
b1111 c
b1111 q
b110 (
b110 O
b110 p
b100100000010101100 7
b100100000010101100 @
b100100000010101100 F
b10001100100000010000000 1
b10001100100000010000000 D
b10001100100000010000000 H
b101100 ,
b101100 I
b101100 K
b101100 J
b10000100011001000000100000 0
b10000100011001000000100000 B
b10000100011001000000100000 \
b1001000000100000 4
b1001000000100000 ?
b1001000000100000 U
b1001000000100000 ^
b100000 5
b100000 R
b100000 _
b10010 )
b10010 Z
b10010 n
b10001 #
b10001 X
b10001 m
b10000 $
b10000 Y
b10000 l
b101100 "
b101100 >
b101100 E
b101100 G
b10000100011001000000100000 3
b10000100011001000000100000 ]
b10000100011001000000100000 i
b101000 j
b101000 *
b101000 C
b101000 M
b101000 h
1L
#105
0L
#110
b10100 r
b10010010101000000010000000 1
b10010010101000000010000000 D
b10010010101000000010000000 H
b101000000010000000 A
b10101 ;
b10101 N
b10101 W
b10101 '
b10101 V
b10101 c
b10101 q
b0 (
b0 O
b0 p
b10100100101010000000100000 0
b10100100101010000000100000 B
b10100100101010000000100000 \
b1010000000100000 4
b1010000000100000 ?
b1010000000100000 U
b1010000000100000 ^
b10100 )
b10100 Z
b10100 n
b10010 #
b10010 X
b10010 m
b10100 $
b10100 Y
b10100 l
b101000000010110000 7
b101000000010110000 @
b101000000010110000 F
b110000 ,
b110000 I
b110000 K
b110000 J
b10100100101010000000100000 3
b10100100101010000000100000 ]
b10100100101010000000100000 i
b101100 j
b110000 "
b110000 >
b110000 E
b110000 G
b101100 *
b101100 C
b101100 M
b101100 h
1L
#115
0L
#120
b10000 r
b1000 !
b1000 e
b1000 o
b1000 d
b1000 :
b1000 Q
b1000 b
b100000000001100000 A
b100 ;
b100 N
b100 W
b100 =
b100 P
b100 T
b100 '
b100 V
b100 c
b100 q
b10 (
b10 O
b10 p
b100000000010010100 7
b100000000010010100 @
b100000000010010100 F
b1101100000000001100000 1
b1101100000000001100000 D
b1101100000000001100000 H
b110100 ,
b110100 I
b110100 K
b110100 J
b1000011011000000000011000 0
b1000011011000000000011000 B
b1000011011000000000011000 \
b1000000000011000 4
b1000000000011000 ?
b1000000000011000 U
b1000000000011000 ^
b11000 5
b11000 R
b11000 _
b10000 )
b10000 Z
b10000 n
b1101 #
b1101 X
b1101 m
b1000 $
b1000 Y
b1000 l
b110100 "
b110100 >
b110100 E
b110100 G
b1000011011000000000011000 3
b1000011011000000000011000 ]
b1000011011000000000011000 i
b110000 j
b110000 *
b110000 C
b110000 M
b110000 h
1L
#125
0L
#130
b10001 r
b10010 !
b10010 e
b10010 o
b10010 d
b10010 :
b10010 Q
b10010 b
b101111100010000001100000 1
b101111100010000001100000 D
b101111100010000001100000 H
b100010000001100000 A
b110 ;
b110 N
b110 W
b110 '
b110 V
b110 c
b110 q
b11 (
b11 O
b11 p
b1001011111000100000011000 0
b1001011111000100000011000 B
b1001011111000100000011000 \
b1000100000011000 4
b1000100000011000 ?
b1000100000011000 U
b1000100000011000 ^
b10001 )
b10001 Z
b10001 n
b1111 #
b1111 X
b1111 m
b1001 $
b1001 Y
b1001 l
b100010000010011000 7
b100010000010011000 @
b100010000010011000 F
b111000 ,
b111000 I
b111000 K
b111000 J
b1001011111000100000011000 3
b1001011111000100000011000 ]
b1001011111000100000011000 i
b110100 j
b111000 "
b111000 >
b111000 E
b111000 G
b110100 *
b110100 C
b110100 M
b110100 h
1L
#135
0L
#140
b10010 r
b11010 !
b11010 e
b11010 o
b11010 d
b11010 :
b11010 Q
b11010 b
b100100000010000000 A
b10010 ;
b10010 N
b10010 W
b10 =
b10 P
b10 T
b10010 '
b10010 V
b10010 c
b10010 q
b1000 (
b1000 O
b1000 p
b100100000010111100 7
b100100000010111100 @
b100100000010111100 F
b10001100100000010000000 1
b10001100100000010000000 D
b10001100100000010000000 H
b111100 ,
b111100 I
b111100 K
b111100 J
b10000100011001000000100000 0
b10000100011001000000100000 B
b10000100011001000000100000 \
b1001000000100000 4
b1001000000100000 ?
b1001000000100000 U
b1001000000100000 ^
b100000 5
b100000 R
b100000 _
b10010 )
b10010 Z
b10010 n
b10001 #
b10001 X
b10001 m
b10000 $
b10000 Y
b10000 l
b111100 "
b111100 >
b111100 E
b111100 G
b10000100011001000000100000 3
b10000100011001000000100000 ]
b10000100011001000000100000 i
b111000 j
b111000 *
b111000 C
b111000 M
b111000 h
1L
#145
0L
#150
b10101 r
b10110010101010000010000000 1
b10110010101010000010000000 D
b10110010101010000010000000 H
b101010000010000000 A
b11010 ;
b11010 N
b11010 W
b11010 '
b11010 V
b11010 c
b11010 q
b0 (
b0 O
b0 p
b10101100101010100000100000 0
b10101100101010100000100000 B
b10101100101010100000100000 \
b1010100000100000 4
b1010100000100000 ?
b1010100000100000 U
b1010100000100000 ^
b10101 )
b10101 Z
b10101 n
b10010 #
b10010 X
b10010 m
b10101 $
b10101 Y
b10101 l
b101010000011000000 7
b101010000011000000 @
b101010000011000000 F
b1000000 ,
b1000000 I
b1000000 K
b1000000 J
b10101100101010100000100000 3
b10101100101010100000100000 ]
b10101100101010100000100000 i
b111100 j
b1000000 "
b1000000 >
b1000000 E
b1000000 G
b111100 *
b111100 C
b111100 M
b111100 h
1L
#155
0L
#160
b10000 r
b1100 !
b1100 e
b1100 o
b1100 d
b1100 :
b1100 Q
b1100 b
b100000000001100000 A
b11 ;
b11 N
b11 W
b100 =
b100 P
b100 T
b11 '
b11 V
b11 c
b11 q
b100 (
b100 O
b100 p
b100000000010100100 7
b100000000010100100 @
b100000000010100100 F
b1001100100000000001100000 1
b1001100100000000001100000 D
b1001100100000000001100000 H
b1000100 ,
b1000100 I
b1000100 K
b1000100 J
b1010011001000000000011000 0
b1010011001000000000011000 B
b1010011001000000000011000 \
b1000000000011000 4
b1000000000011000 ?
b1000000000011000 U
b1000000000011000 ^
b11000 5
b11000 R
b11000 _
b10000 )
b10000 Z
b10000 n
b1100 #
b1100 X
b1100 m
b1010 $
b1010 Y
b1010 l
b1000100 "
b1000100 >
b1000100 E
b1000100 G
b1010011001000000000011000 3
b1010011001000000000011000 ]
b1010011001000000000011000 i
b1000000 j
b1000000 *
b1000000 C
b1000000 M
b1000000 h
1L
#165
0L
#170
b10001 r
b11001 !
b11001 e
b11001 o
b11001 d
b11001 :
b11001 Q
b11001 b
b1101110100010000001100000 1
b1101110100010000001100000 D
b1101110100010000001100000 H
b100010000001100000 A
b101 ;
b101 N
b101 W
b101 '
b101 V
b101 c
b101 q
b101 (
b101 O
b101 p
b1011011101000100000011000 0
b1011011101000100000011000 B
b1011011101000100000011000 \
b1000100000011000 4
b1000100000011000 ?
b1000100000011000 U
b1000100000011000 ^
b10001 )
b10001 Z
b10001 n
b1110 #
b1110 X
b1110 m
b1011 $
b1011 Y
b1011 l
b100010000010101000 7
b100010000010101000 @
b100010000010101000 F
b1001000 ,
b1001000 I
b1001000 K
b1001000 J
b1011011101000100000011000 3
b1011011101000100000011000 ]
b1011011101000100000011000 i
b1000100 j
b1001000 "
b1001000 >
b1001000 E
b1001000 G
b1000100 *
b1000100 C
b1000100 M
b1000100 h
1L
#175
0L
#180
b10010 r
b100101 !
b100101 e
b100101 o
b100101 d
b100101 :
b100101 Q
b100101 b
b100100000010000000 A
b11001 ;
b11001 N
b11001 W
b10 =
b10 P
b10 T
b11001 '
b11001 V
b11001 c
b11001 q
b1100 (
b1100 O
b1100 p
b100100000011001100 7
b100100000011001100 @
b100100000011001100 F
b10001100100000010000000 1
b10001100100000010000000 D
b10001100100000010000000 H
b1001100 ,
b1001100 I
b1001100 K
b1001100 J
b10000100011001000000100000 0
b10000100011001000000100000 B
b10000100011001000000100000 \
b1001000000100000 4
b1001000000100000 ?
b1001000000100000 U
b1001000000100000 ^
b100000 5
b100000 R
b100000 _
b10010 )
b10010 Z
b10010 n
b10001 #
b10001 X
b10001 m
b10000 $
b10000 Y
b10000 l
b1001100 "
b1001100 >
b1001100 E
b1001100 G
b10000100011001000000100000 3
b10000100011001000000100000 ]
b10000100011001000000100000 i
b1001000 j
b1001000 *
b1001000 C
b1001000 M
b1001000 h
1L
#185
0L
#190
b10110 r
b11010010101100000010000000 1
b11010010101100000010000000 D
b11010010101100000010000000 H
b101100000010000000 A
b100101 ;
b100101 N
b100101 W
b100101 '
b100101 V
b100101 c
b100101 q
b0 (
b0 O
b0 p
b10110100101011000000100000 0
b10110100101011000000100000 B
b10110100101011000000100000 \
b1011000000100000 4
b1011000000100000 ?
b1011000000100000 U
b1011000000100000 ^
b10110 )
b10110 Z
b10110 n
b10010 #
b10010 X
b10010 m
b10110 $
b10110 Y
b10110 l
b101100000011010000 7
b101100000011010000 @
b101100000011010000 F
b1010000 ,
b1010000 I
b1010000 K
b1010000 J
b10110100101011000000100000 3
b10110100101011000000100000 ]
b10110100101011000000100000 i
b1001100 j
b1010000 "
b1010000 >
b1010000 E
b1010000 G
b1001100 *
b1001100 C
b1001100 M
b1001100 h
1L
#195
0L
#200
b10000 r
b10000 !
b10000 e
b10000 o
b10000 d
b10000 :
b10000 Q
b10000 b
b100000000001100000 A
b100 ;
b100 N
b100 W
b100 =
b100 P
b100 T
b100 '
b100 V
b100 c
b100 q
b100 (
b100 O
b100 p
b100000000010110100 7
b100000000010110100 @
b100000000010110100 F
b1001101100000000001100000 1
b1001101100000000001100000 D
b1001101100000000001100000 H
b1010100 ,
b1010100 I
b1010100 K
b1010100 J
b1010011011000000000011000 0
b1010011011000000000011000 B
b1010011011000000000011000 \
b1000000000011000 4
b1000000000011000 ?
b1000000000011000 U
b1000000000011000 ^
b11000 5
b11000 R
b11000 _
b10000 )
b10000 Z
b10000 n
b1101 #
b1101 X
b1101 m
b1010 $
b1010 Y
b1010 l
b1010100 "
b1010100 >
b1010100 E
b1010100 G
b1010011011000000000011000 3
b1010011011000000000011000 ]
b1010011011000000000011000 i
b1010000 j
b1010000 *
b1010000 C
b1010000 M
b1010000 h
1L
#205
0L
#210
b10001 r
b11110 !
b11110 e
b11110 o
b11110 d
b11110 :
b11110 Q
b11110 b
b1101111100010000001100000 1
b1101111100010000001100000 D
b1101111100010000001100000 H
b100010000001100000 A
b110 ;
b110 N
b110 W
b110 '
b110 V
b110 c
b110 q
b101 (
b101 O
b101 p
b1011011111000100000011000 0
b1011011111000100000011000 B
b1011011111000100000011000 \
b1000100000011000 4
b1000100000011000 ?
b1000100000011000 U
b1000100000011000 ^
b10001 )
b10001 Z
b10001 n
b1111 #
b1111 X
b1111 m
b1011 $
b1011 Y
b1011 l
b100010000010111000 7
b100010000010111000 @
b100010000010111000 F
b1011000 ,
b1011000 I
b1011000 K
b1011000 J
b1011011111000100000011000 3
b1011011111000100000011000 ]
b1011011111000100000011000 i
b1010100 j
b1011000 "
b1011000 >
b1011000 E
b1011000 G
b1010100 *
b1010100 C
b1010100 M
b1010100 h
1L
#215
0L
#220
b10010 r
b101110 !
b101110 e
b101110 o
b101110 d
b101110 :
b101110 Q
b101110 b
b100100000010000000 A
b11110 ;
b11110 N
b11110 W
b10 =
b10 P
b10 T
b11110 '
b11110 V
b11110 c
b11110 q
b10000 (
b10000 O
b10000 p
b100100000011011100 7
b100100000011011100 @
b100100000011011100 F
b10001100100000010000000 1
b10001100100000010000000 D
b10001100100000010000000 H
b1011100 ,
b1011100 I
b1011100 K
b1011100 J
b10000100011001000000100000 0
b10000100011001000000100000 B
b10000100011001000000100000 \
b1001000000100000 4
b1001000000100000 ?
b1001000000100000 U
b1001000000100000 ^
b100000 5
b100000 R
b100000 _
b10010 )
b10010 Z
b10010 n
b10001 #
b10001 X
b10001 m
b10000 $
b10000 Y
b10000 l
b1011100 "
b1011100 >
b1011100 E
b1011100 G
b10000100011001000000100000 3
b10000100011001000000100000 ]
b10000100011001000000100000 i
b1011000 j
b1011000 *
b1011000 C
b1011000 M
b1011000 h
1L
#225
0L
#230
b10111 r
b11110010101110000010000000 1
b11110010101110000010000000 D
b11110010101110000010000000 H
b101110000010000000 A
b101110 ;
b101110 N
b101110 W
b101110 '
b101110 V
b101110 c
b101110 q
b0 (
b0 O
b0 p
b10111100101011100000100000 0
b10111100101011100000100000 B
b10111100101011100000100000 \
b1011100000100000 4
b1011100000100000 ?
b1011100000100000 U
b1011100000100000 ^
b10111 )
b10111 Z
b10111 n
b10010 #
b10010 X
b10010 m
b10111 $
b10111 Y
b10111 l
b101110000011100000 7
b101110000011100000 @
b101110000011100000 F
b1100000 ,
b1100000 I
b1100000 K
b1100000 J
b10111100101011100000100000 3
b10111100101011100000100000 ]
b10111100101011100000100000 i
b1011100 j
b1100000 "
b1100000 >
b1100000 E
b1100000 G
b1011100 *
b1011100 C
b1011100 M
b1011100 h
1L
#235
0L
#240
b10100 r
b1010 !
b1010 e
b1010 o
b1010 d
b1010 :
b1010 Q
b1010 b
b101000 A
b1010 ;
b1010 N
b1010 W
b10101 '
b10101 V
b10101 c
b10101 q
19
1.
0%
b0 <
b0 S
b0 a
0&
b10001100 7
b10001100 @
b10001100 F
b1110100000000000000101000 1
b1110100000000000000101000 D
b1110100000000000000101000 H
b1100100 ,
b1100100 I
b1100100 K
b1100100 J
b10011101000000000000001010 0
b10011101000000000000001010 B
b10011101000000000000001010 \
b1010 4
b1010 ?
b1010 U
b1010 ^
b1010 5
b1010 R
b1010 _
b0 )
b0 Z
b0 n
b10100 #
b10100 X
b10100 m
b10011 $
b10011 Y
b10011 l
b101011 +
b101011 [
b101011 `
b1100100 "
b1100100 >
b1100100 E
b1100100 G
b10101110011101000000000000001010 3
b10101110011101000000000000001010 ]
b10101110011101000000000000001010 i
b1100000 j
b1100000 *
b1100000 C
b1100000 M
b1100000 h
1L
#245
0L
#250
b10101 r
b1011 !
b1011 e
b1011 o
b1011 d
b1011 :
b1011 Q
b1011 b
b1110101000000000000101100 1
b1110101000000000000101100 D
b1110101000000000000101100 H
b101100 A
b1011 ;
b1011 N
b1011 W
b11010 '
b11010 V
b11010 c
b11010 q
b10011101010000000000001011 0
b10011101010000000000001011 B
b10011101010000000000001011 \
b1011 4
b1011 ?
b1011 U
b1011 ^
b1011 5
b1011 R
b1011 _
b10101 #
b10101 X
b10101 m
b10010100 7
b10010100 @
b10010100 F
b1101000 ,
b1101000 I
b1101000 K
b1101000 J
b10101110011101010000000000001011 3
b10101110011101010000000000001011 ]
b10101110011101010000000000001011 i
b1100100 j
b1101000 "
b1101000 >
b1101000 E
b1101000 G
b1100100 *
b1100100 C
b1100100 M
b1100100 h
1L
#255
0L
#260
b10110 r
b1100 !
b1100 e
b1100 o
b1100 d
b1100 :
b1100 Q
b1100 b
b110000 A
b1100 ;
b1100 N
b1100 W
b100101 '
b100101 V
b100101 c
b100101 q
b10011100 7
b10011100 @
b10011100 F
b1110110000000000000110000 1
b1110110000000000000110000 D
b1110110000000000000110000 H
b1101100 ,
b1101100 I
b1101100 K
b1101100 J
b10011101100000000000001100 0
b10011101100000000000001100 B
b10011101100000000000001100 \
b1100 4
b1100 ?
b1100 U
b1100 ^
b1100 5
b1100 R
b1100 _
b10110 #
b10110 X
b10110 m
b1101100 "
b1101100 >
b1101100 E
b1101100 G
b10101110011101100000000000001100 3
b10101110011101100000000000001100 ]
b10101110011101100000000000001100 i
b1101000 j
b1101000 *
b1101000 C
b1101000 M
b1101000 h
1L
#265
0L
#270
b10111 r
b1101 !
b1101 e
b1101 o
b1101 d
b1101 :
b1101 Q
b1101 b
b1110111000000000000110100 1
b1110111000000000000110100 D
b1110111000000000000110100 H
b110100 A
b1101 ;
b1101 N
b1101 W
b101110 '
b101110 V
b101110 c
b101110 q
b10011101110000000000001101 0
b10011101110000000000001101 B
b10011101110000000000001101 \
b1101 4
b1101 ?
b1101 U
b1101 ^
b1101 5
b1101 R
b1101 _
b10111 #
b10111 X
b10111 m
b10100100 7
b10100100 @
b10100100 F
b1110000 ,
b1110000 I
b1110000 K
b1110000 J
b10101110011101110000000000001101 3
b10101110011101110000000000001101 ]
b10101110011101110000000000001101 i
b1101100 j
b1110000 "
b1110000 >
b1110000 E
b1110000 G
b1101100 *
b1101100 C
b1101100 M
b1101100 h
1L
#275
0L
#280
b11111 r
bx !
bx e
bx o
bx d
x6
bx :
bx Q
bx b
b111111111111111100 A
bx ;
bx N
bx W
bx '
bx V
bx c
bx q
bx (
bx O
bx p
09
0.
b1000000000001110000 7
b1000000000001110000 @
b1000000000001110000 F
b11111111111111111111111100 1
b11111111111111111111111100 D
b11111111111111111111111100 H
b1110100 ,
b1110100 I
b1110100 K
b1110100 J
b11111111111111111111111111 0
b11111111111111111111111111 B
b11111111111111111111111111 \
b1111111111111111 4
b1111111111111111 ?
b1111111111111111 U
b1111111111111111 ^
b111111 5
b111111 R
b111111 _
b11111 )
b11111 Z
b11111 n
b11111 #
b11111 X
b11111 m
b11111 $
b11111 Y
b11111 l
b111111 +
b111111 [
b111111 `
b1110100 "
b1110100 >
b1110100 E
b1110100 G
b11111111111111111111111111111111 3
b11111111111111111111111111111111 ]
b11111111111111111111111111111111 i
b1110000 j
b1110000 *
b1110000 C
b1110000 M
b1110000 h
1L
